<?xml version="1.0" standalone="no"?>
<!DOCTYPE svg PUBLIC "-//W3C//DTD SVG 1.1//EN" "http://www.w3.org/Graphics/SVG/1.1/DTD/svg11.dtd" >
<svg xmlns="http://www.w3.org/2000/svg">
<metadata>Generated by IcoMoon</metadata>
<defs>
<font id="icomoon" horiz-adv-x="1024">
<font-face units-per-em="1024" ascent="960" descent="-64" />
<missing-glyph horiz-adv-x="1024" />
<glyph unicode="&#x20;" horiz-adv-x="512" d="" />
<glyph unicode="&#xe900;" glyph-name="gluten" horiz-adv-x="1027" d="M440.407 569.492c-22.78-21.695-44.475-43.39-66.169-65.085-64 65.085-129.085 131.254-194.169 197.424-126.915-160.542-121.492-413.288 56.407-569.492 172.475-151.864 403.525-119.322 523.932-22.78-69.424 70.508-137.763 141.017-207.186 211.525 22.78 21.695 44.475 42.305 67.254 64 69.424-70.508 138.847-142.102 209.356-213.695 126.915 135.593 155.119 379.661-1.085 554.305-162.712 181.153-423.051 178.983-582.508 42.305zM1027.254 446.915c0-283.119-229.966-512-516.339-510.915-285.288 1.085-514.169 235.39-510.915 517.424 3.254 276.61 231.051 507.661 518.508 506.576 279.864-1.085 508.746-232.136 508.746-513.085zM635.661 453.424c-10.847-9.763-19.525-21.695-31.458-30.373-29.288-20.61-62.915-30.373-98.712-22.78-22.78 4.339-28.203 22.78-11.932 37.966 27.119 26.034 60.746 33.627 96.542 31.458 15.186-1.085 29.288-6.508 44.475-10.847 0-1.085 0-3.254 1.085-5.424zM706.169 529.356c-11.932-10.847-21.695-22.78-33.627-31.458-28.203-18.441-58.576-27.119-93.288-22.78-10.847 1.085-20.61 4.339-23.864 16.271-3.254 10.847 3.254 18.441 9.763 24.949 31.458 32.542 105.22 40.136 141.017 13.017zM423.051 507.661c13.017-18.441 18.441-39.051 18.441-61.831 0-23.864-4.339-46.644-16.271-67.254-4.339-6.508-8.678-11.932-15.186-17.356-11.932-9.763-23.864-5.424-30.373 7.593-20.61 39.051 3.254 117.153 43.39 138.847zM352.542 431.729c21.695-35.797 23.864-71.593 10.847-108.475-4.339-11.932-10.847-23.864-19.525-33.627-14.102-16.271-31.458-11.932-37.966 8.678-8.678 32.542-3.254 64 11.932 94.373 7.593 16.271 18.441 29.288 34.712 39.051zM493.559 303.729c-17.356-30.373-45.559-45.559-77.017-53.153-16.271-3.254-33.627-3.254-50.983-3.254-8.678 0-18.441 4.339-21.695 14.102-3.254 10.847 2.169 18.441 8.678 24.949 21.695 20.61 47.729 28.203 75.932 30.373 22.78 3.254 44.475-1.085 65.085-13.017zM776.678 610.712c-5.424-8.678-8.678-14.102-13.017-19.525-32.542-32.542-71.593-45.559-116.068-40.136-9.763 1.085-18.441 4.339-20.61 15.186-3.254 10.847 2.169 18.441 9.763 24.949 26.034 23.864 58.576 32.542 93.288 29.288 14.102 0 29.288-5.424 46.644-9.763zM558.644 663.864c23.864-30.373 27.119-59.661 21.695-88.949-3.254-17.356-11.932-33.627-18.441-49.898-2.169-4.339-6.508-7.593-9.763-10.847-13.017-9.763-26.034-6.508-31.458 7.593-4.339 11.932-6.508 23.864-6.508 36.881 0 29.288 8.678 57.492 27.119 81.356 5.424 7.593 10.847 15.186 17.356 23.864zM562.983 379.661c-8.678-17.356-22.78-29.288-39.051-37.966-26.034-15.186-54.237-21.695-83.525-18.441-10.847 1.085-21.695 3.254-26.034 15.186-3.254 10.847 2.169 19.525 9.763 27.119 33.627 30.373 99.797 37.966 138.847 14.102zM778.847 747.39c-2.169-10.847-2.169-22.78-5.424-33.627-10.847-33.627-32.542-59.661-64-77.017-10.847-6.508-24.949-13.017-35.797-2.169-11.932 10.847-6.508 24.949-2.169 36.881 17.356 42.305 64 75.932 107.39 75.932zM635.661 739.797c5.424-17.356 11.932-31.458 15.186-45.559 5.424-31.458 1.085-60.746-15.186-88.949-6.508-10.847-15.186-22.78-30.373-19.525s-17.356 16.271-19.525 29.288c-5.424 37.966 3.254 72.678 27.119 103.051 4.339 6.508 13.017 11.932 22.78 21.695zM492.475 583.593c27.119-36.881 24.949-106.305-4.339-139.932-6.508-7.593-14.102-13.017-24.949-10.847-9.763 2.169-14.102 10.847-16.271 19.525-11.932 40.136 5.424 99.797 37.966 125.831 2.169 2.169 4.339 3.254 7.593 5.424zM329.763 250.576c-3.254-5.424-4.339-9.763-7.593-13.017-21.695-24.949-43.39-49.898-66.169-74.847-8.678-8.678-16.271-9.763-23.864-3.254-6.508 5.424-6.508 15.186 1.085 22.78 21.695 24.949 44.475 50.983 66.169 75.932 5.424 6.508 11.932 8.678 19.525 4.339 4.339-2.169 6.508-7.593 10.847-11.932z" />
<glyph unicode="&#xe901;" glyph-name="lactose_free" horiz-adv-x="1032" d="M516.171-64c-289.89 1.043-522.428 237.752-516.171 523.47 6.257 274.248 234.623 503.658 523.47 500.53 282.591-3.128 515.128-236.709 508.872-524.513-6.257-271.12-230.452-498.444-516.171-499.487zM834.216 173.752c147.031 161.629 145.988 430.664-41.711 592.293-177.271 152.244-420.236 117.833-548.497 0 41.711-39.625 84.464-79.251 126.175-118.876-21.898-26.069-41.711-50.053-59.438-71.951-43.796 41.711-87.593 83.422-130.346 125.132-114.705-139.731-127.218-374.354 27.112-538.069 157.458-166.843 401.466-169.971 558.925-51.096-12.513 11.47-25.026 22.941-36.497 34.411-4.171 4.171-7.299 11.47-7.299 16.684-1.043 36.497 0 72.994 0 109.491 0 3.128 0 6.257 1.043 8.342 36.497-35.454 74.037-70.908 110.534-106.363zM433.792 735.804c-3.128 0-7.299 0-11.47 1.043-9.385 1.043-15.642 6.257-15.642 16.684s7.299 14.599 16.684 15.642c2.086 0 4.171 0 6.257 0 58.395 0 115.747 0 174.143 0 3.128 0 8.342 1.043 10.428-1.043 4.171-4.171 11.47-10.428 11.47-15.642s-6.257-11.47-11.47-14.599c-4.171-3.128-10.428-2.086-15.642-2.086-6.257-36.497 3.128-67.78 30.24-93.849 14.599-13.556 28.155-28.155 41.711-42.754 15.642-17.727 23.984-38.582 23.984-62.566-1.043-122.004 0-242.965 0-364.969 0-27.112-11.47-38.582-38.582-38.582-91.764 0-183.527 0-276.334 0-26.069 0-38.582 12.513-38.582 38.582 0 120.961 0 241.923 0 362.884 0 26.069 8.342 47.967 26.069 66.737 13.556 14.599 27.112 28.155 40.668 41.711 25.026 26.069 33.369 56.31 26.069 92.807z" />
<glyph unicode="&#xe902;" glyph-name="vegan" horiz-adv-x="1032" d="M547.454 267.601c2.086 30.24 3.128 60.481 6.257 89.678 8.342 71.951 26.069 140.774 82.379 191.87 44.839 40.668 99.063 64.652 156.415 79.251 21.898 5.214 44.839 9.385 67.78 13.556-51.096-106.363-114.705-200.212-208.554-272.163-14.599-11.47-28.155-22.941-40.668-36.497-12.513-12.513-22.941-27.112-36.497-43.796 20.855 74.037 56.31 135.56 99.063 194.998-58.395-62.566-98.020-135.56-120.961-218.982-2.086 2.086-3.128 2.086-5.214 2.086zM528.684 160.196c-32.326 205.426-116.79 376.44-308.66 480.717 10.428-2.086 20.855-4.171 32.326-7.299 154.33-40.668 258.607-158.501 275.291-317.002 5.214-47.967 3.128-95.935 3.128-143.902 0-5.214-1.043-9.385-2.086-12.513zM516.171-64c-289.89 1.043-522.428 237.752-516.171 523.47 6.257 274.248 234.623 503.658 523.47 500.53 282.591-3.128 515.128-236.709 508.872-524.513-6.257-271.12-230.452-498.444-516.171-499.487zM834.216 173.752c147.031 161.629 145.988 430.664-41.711 592.293-177.271 152.244-420.236 117.833-548.497 0l-63.609-65.695c-114.705-139.731-127.218-374.354 27.112-538.069 157.458-166.843 401.466-169.971 558.925-51.096l67.78 62.566z" />
<glyph unicode="&#xe903;" glyph-name="vegetarian" horiz-adv-x="1028" d="M510.957-64c-289.89 1.043-521.385 237.752-515.128 523.47 5.214 274.248 233.58 503.658 522.428 500.53 283.633-3.128 515.128-236.709 508.872-524.513-6.257-271.12-230.452-498.444-516.171-499.487zM830.045 173.752c147.031 161.629 144.945 431.707-42.754 592.293-177.271 152.244-420.236 117.833-548.497 0l-63.609-65.695c-113.662-139.731-126.175-374.354 27.112-538.069 157.458-166.843 401.466-169.971 558.925-51.096l68.823 62.566zM376.44 688.88c6.257-3.128 9.385-8.342 9.385-15.642 0-18.77 0-37.54 0-57.352 0-2.086 0-3.128 0-6.257 3.128 1.043 6.257 1.043 9.385 2.086 16.684 3.128 32.326 1.043 46.925-5.214 17.727-8.342 34.411-19.813 51.096-33.369-2.086-1.043-4.171-2.086-5.214-3.128-11.47-11.47-22.941-22.941-34.411-34.411-4.171-4.171-5.214-9.385-1.043-12.513 3.128-3.128 8.342-3.128 12.513 1.043 12.513 12.513 26.069 26.069 38.582 38.582 30.24-28.155 56.31-59.438 82.379-92.807-4.171-3.128-7.299-7.299-11.47-10.428-4.171-4.171-4.171-8.342-1.043-12.513 3.128-3.128 8.342-4.171 12.513 0 3.128 3.128 6.257 6.257 10.428 10.428 25.026-35.454 49.010-69.866 74.037-104.277-11.47-11.47-22.941-22.941-33.369-33.369-2.086-2.086-4.171-5.214-3.128-8.342 0-2.086 3.128-5.214 5.214-6.257 3.128-1.043 6.257 0 8.342 2.086 9.385 8.342 18.77 17.727 27.112 27.112 1.043 1.043 2.086 2.086 4.171 4.171 2.086-3.128 4.171-6.257 6.257-10.428 25.026-40.668 50.053-82.379 75.079-123.047 2.086-4.171 3.128-8.342 2.086-12.513-3.128-8.342-11.47-10.428-19.813-6.257-15.642 9.385-32.326 18.77-47.967 28.155-74.037 44.839-147.031 91.764-215.853 145.988-5.214 4.171-10.428 8.342-16.684 13.556 4.171 3.128 8.342 6.257 11.47 10.428 7.299 7.299 14.599 13.556 20.855 20.855 4.171 4.171 4.171 8.342 1.043 11.47s-8.342 3.128-12.513 0c-9.385-9.385-18.77-18.77-29.198-29.198-1.043-1.043-2.086-3.128-4.171-4.171-7.299 6.257-14.599 12.513-21.898 18.77-26.069 22.941-50.053 45.882-69.866 74.037-10.428 15.642-19.813 31.283-22.941 50.053-2.086 10.428-1.043 20.855 2.086 31.283 0 1.043 0 2.086 1.043 4.171-2.086 0-4.171 0-5.214 0-18.77 0-38.582 0-57.352 0-7.299 0-12.513 2.086-15.642 9.385 0 3.128 0 5.214 0 8.342 3.128 7.299 9.385 9.385 16.684 8.342 8.342 0 16.684 0 25.026 0 5.214 0 10.428 0 15.642 0-1.043 2.086-3.128 2.086-4.171 3.128-14.599 7.299-29.198 14.599-43.796 21.898-4.171 2.086-6.257 6.257-9.385 8.342 0 3.128 0 5.214 0 8.342 6.257 9.385 11.47 11.47 21.898 6.257 16.684-8.342 33.369-16.684 50.053-25.026 3.128-2.086 7.299-3.128 11.47-5.214-1.043 3.128-2.086 4.171-3.128 6.257-9.385 18.77-17.727 36.497-27.112 55.267-5.214 10.428-3.128 15.642 6.257 20.855 3.128 0 5.214 0 8.342 0 4.171-2.086 7.299-6.257 9.385-10.428 7.299-14.599 14.599-29.198 21.898-43.796 1.043-1.043 1.043-2.086 3.128-4.171 0 15.642 0 29.198 0 42.754 0 7.299 2.086 12.513 8.342 16.684 1.043 0 4.171 0 6.257 0z" />
</font></defs></svg>